{
  "main" : {
    "title" : {
      "ko" : "메인",
      "en" : ""
    },
    "state" : "완료",
    "link" : "main",
    "children" : {}
  },
  "aboutus" : {
    "view" : true,
    "title" : {
      "ko" : "About Us",
      "en" : "About Us"
    },
    "state" : "",
    "link" : "",
    "children" : {
      "Introduction" : {
        "view" : true,
        "state" : "완료",
        "link" : "aboutus_01"
      },
      "Message from the KIST President" : {
        "view" : true,
        "state" : "완료",
        "link" : "aboutus_02"
      },
      "Message from the Dean" : {
        "view" : true,
        "state" : "완료",
        "link" : "aboutus_03"
      },
      "Status" : {
        "view" : true,
        "state" : "완료",
        "link" : "aboutus_04"
      },
      "News" : {
        "view" : true,
        "state" : "",
        "link" : "",
        "children" : {
          "목록" : {
            "view" : false,
            "state" : "완료",
            "type" : "목록",
            "link" : "aboutus_05_목록"
          },
          "빈값" : {
            "view" : false,
            "state" : "완료",
            "type" : "빈값",
            "link" : "aboutus_05_빈값"
          },
          "상세" : {
            "view" : false,
            "state" : "완료",
            "type" : "상세",
            "link" : "aboutus_05_상세"
          }
        }
      },
      "Notice" : {
        "view" : true,
        "state" : "",
        "link" : "",
        "children" : {
          "목록" : {
            "view" : false,
            "state" : "완료",
            "type" : "목록",
            "link" : "aboutus_06_목록"
          },
          "빈값" : {
            "view" : false,
            "state" : "완료",
            "type" : "빈값",
            "link" : "aboutus_06_빈값"
          },
          "상세" : {
            "view" : false,
            "state" : "완료",
            "type" : "상세",
            "link" : "aboutus_06_상세"
          }
        }
      },
      "Map & Direction" : {
        "view" : true,
        "state" : "완료",
        "link" : "aboutus_07"
      }
    }
  },
  "faculty-major" : {
    "view" : true,
    "title" : {
      "ko" : "Faculty & Major",
      "en" : "Faculty & Major"
    },
    "state" : "",
    "link" : "",
    "children" : {
      "Search for KIST School Professors" : {
        "view" : true,
        "state" : "",
        "link" : "",
        "children" : {
          "목록" : {
            "view" : false,
            "type" : "목록",
            "state" : "완료",
            "link" : "faculty-major_01_목록"
          },
          "빈값" : {
            "view" : false,
            "type" : "빈값",
            "state" : "완료",
            "link" : "faculty-major_01_빈값"
          },
          "상세" : {
            "view" : false,
            "type" : "상세",
            "state" : "완료",
            "link" : "faculty-major_01_상세"
          }
        }
      },
      "Division of Bio-Medical Science & Technology" : {
        "view" : true,
        "state" : "완료",
        "link" : "faculty-major_02",
        "description" : [
          "Biomedical Engineering",
          "Biological Chemistry",
          "Neuroscience"
        ]
      },
      "Division of Energy & Environment Technology" : {
        "view" : true,
        "state" : "완료",
        "link" : "faculty-major_03",
        "description" : [
          "Energy Engineering",
          "Environment Engineering"
        ]
      },
      "Division of Nano & Information Technology" : {
        "view" : true,
        "state" : "완료",
        "link" : "faculty-major_04",
        "description" : [
          "Nanomaterials Science & Engineering",
          "HCI & Robotics"
        ]
      }
    }
  },
  "admission" : {
    "view" : true,
    "title" : {
      "ko" : "Admission",
      "en" : "Admission"
    },
    "state" : "",
    "link" : "",
    "children" : {
      "Degree Program" : {
        "view" : true,
        "state" : "완료",
        "link" : "admission_01"
      },
      "Outstanding Students Attraction Program" : {
        "view" : true,
        "state" : "",
        "link" : "",
        "children" : {
          "Dual Degree Program" : {
            "view" : true,
            "state" : "완료",
            "link" : "admission_0201"
          },
          "Internship Program" : {
            "view" : true,
            "state" : "완료",
            "link" : "admission_0202"
          }
        }
      }
    }
  },
  "schoollife" : {
    "view" : true,
    "title" : {
      "ko" : "School Life",
      "en" : "School Life"
    },
    "state" : "",
    "link" : "",
    "children" : {
      "Benefits" : {
        "view" : true,
        "state" : "완료",
        "link" : "schoollife_01"
      },
      "Gallery" : {
        "view" : true,
        "state" : "",
        "link" : "",
        "children" : {
          "목록" : {
            "view" : false,
            "type" : "목록",
            "state" : "완료",
            "link" : "schoollife_02_목록"
          },
          "빈값" : {
            "view" : false,
            "type" : "빈값",
            "state" : "완료",
            "link" : "schoollife_02_빈값"
          },
          "상세" : {
            "view" : false,
            "type" : "상세",
            "state" : "완료",
            "link" : "schoollife_02_상세"
          }
        }
      }
    }
  },
  "accomplishments" : {
    "view" : true,
    "title" : {
      "ko" : "Accomplishments",
      "en" : "Accomplishments"
    },
    "state" : "완료",
    "link" : "",
    "children" : {
      "Accomplishments" : {
        "view": true,
        "state" : "완료",
        "link" : "accomplishments_01"
      }
    }
  }
}