[
  {
    "summary" : "KIST School is located in the heart of Seoul, Korea's dynamic capital city, and its campus boasts a global community representing 28 different countries, making it a very friendly English-speaking environment where students can further develop their communication."
  },
  {
    "summary" : "Participating first-hand in global S&T convergence research at KIST will give you with the necessary skills to find solutions to global issues and to become a leader in future industries and frontier R&D."
  },
  {
    "summary" : "Take advantage of the latest in cutting-edge high tech instruments and facilities at KIST, ranked by Reuters as the \"world's sixth most innovative institute.\""
  }
]