[
  {
    "title" : "Bio-Medical Science &<br class='only-desktop'> Technology",
    "summary" : "Bio-Medical convergence major covers multi-disciplinary fields which consist of three sub-majors including Biological Chemistry, Biomedical Engineering and Neuroscience.",
    "link" : "../faculty-major/faculty-major_02.html"
  },
  {
    "title" : "Energy & Environment<br class='only-desktop'> Technology",
    "summary" : "Currently, the biggest social and academic issues in the world are related to the development of renewable energy and the creation of a clean environment.",
    "link" : "../faculty-major/faculty-major_03.html"
  },
  {
    "title" : "Nano & Information<br class='only-desktop'> Technology",
    "summary" : "Nano-Information convergence major includes both of Nanomaterials Science and Engineering program and HCI & Robotics program.",
    "link" : "../faculty-major/faculty-major_04.html"
  }
]